1444876021
DuongQua<nbb>18<nbb>3<nbb>988<nbb>400<nbb><nbb>1<nbb>1684<nbb>5329<nbb>98262<nbb>1444273457<nbb>677<nbb>0<nbb>0<nbb>
BoTom<nbb>18<nbb>3<nbb>220<nbb>400<nbb><nbb>1<nbb>9<nbb>960<nbb>48300<nbb>1442325263<nbb>259<nbb>0<nbb>0<nbb>
KimTiem<nbb>18<nbb>3<nbb>210<nbb>400<nbb><nbb>1<nbb>239<nbb>1624<nbb>29446<nbb>1441721500<nbb>276<nbb>0<nbb>0<nbb>
MaX6789<nbb>18<nbb>3<nbb>150<nbb>400<nbb>08/10 21:07:04<nbb>1<nbb>138<nbb>461<nbb>48961<nbb>1444653674<nbb>539<nbb>0<nbb>0<nbb>
KieuPhong<nbb>18<nbb>3<nbb>138<nbb>336<nbb>08/12 19:50:38<nbb>1<nbb>9<nbb>1034<nbb>43891<nbb>1444663138<nbb>500<nbb>0<nbb>0<nbb>
ChatChoi<nbb>18<nbb>3<nbb>92<nbb>400<nbb>08/01 08:54:25<nbb>1<nbb>1410<nbb>560<nbb>42005<nbb>1444398184<nbb>505<nbb>0<nbb>0<nbb>
DepLoan<nbb>18<nbb>3<nbb>56<nbb>6<nbb>01/08 21:27:11<nbb>1<nbb>15<nbb>1427<nbb>36480<nbb>1444661002<nbb>256<nbb>0<nbb>0<nbb>
BeTrucMG<nbb>18<nbb>3<nbb>48<nbb>328<nbb>01/08 13:26:34<nbb>1<nbb>9<nbb>1449<nbb>38900<nbb>1439295311<nbb>254<nbb>0<nbb>0<nbb>
LyTieuMieu<nbb>18<nbb>3<nbb>34<nbb>385<nbb><nbb>1<nbb>9<nbb>1738<nbb>47491<nbb>1438878257<nbb>266<nbb>0<nbb>0<nbb>
BongMaTuLa<nbb>18<nbb>3<nbb>28<nbb>400<nbb><nbb>1<nbb>9<nbb>1190<nbb>43320<nbb>1441780081<nbb>266<nbb>0<nbb>0<nbb>
HYhung<nbb>18<nbb>3<nbb>1<nbb>400<nbb>26/01 20:22:29<nbb>1<nbb>9<nbb>59<nbb>25520<nbb>1443529536<nbb>500<nbb>0<nbb>0<nbb>
kemaitang<nbb>18<nbb>2<nbb>941<nbb>400<nbb><nbb>1<nbb>9<nbb>734<nbb>85335<nbb>1439119696<nbb>500<nbb>0<nbb>0<nbb>
HoangAnh<nbb>18<nbb>2<nbb>800<nbb>400<nbb>09/12 21:27:14<nbb>1<nbb>9<nbb>156<nbb>81339<nbb>1439092824<nbb>500<nbb>0<nbb>0<nbb>
Apple<nbb>18<nbb>2<nbb>760<nbb>400<nbb>27/10 18:34:59<nbb>1<nbb>17<nbb>9429<nbb>99716<nbb>1441905269<nbb>500<nbb>0<nbb>0<nbb>
NhatLinh<nbb>18<nbb>2<nbb>699<nbb>400<nbb><nbb>1<nbb>9<nbb>2883<nbb>45961<nbb>1438966153<nbb>267<nbb>0<nbb>0<nbb>
DraGonKing<nbb>18<nbb>2<nbb>696<nbb>400<nbb><nbb>1<nbb>9<nbb>91<nbb>60583<nbb>1442119161<nbb>500<nbb>0<nbb>0<nbb>
DraGonKing<nbb>18<nbb>2<nbb>696<nbb>400<nbb><nbb>1<nbb>9<nbb>91<nbb>2400<nbb>1442119161<nbb>500<nbb>0<nbb>0<nbb>
DraGonKing<nbb>18<nbb>2<nbb>696<nbb>400<nbb><nbb>1<nbb>9<nbb>91<nbb>15045<nbb>1442119161<nbb>500<nbb>0<nbb>0<nbb>
mrbingbong<nbb>18<nbb>2<nbb>656<nbb>6<nbb><nbb>1<nbb>9<nbb>348<nbb>82439<nbb>1444662968<nbb>543<nbb>7<nbb>30<nbb>
HumXamHB<nbb>18<nbb>2<nbb>641<nbb>400<nbb><nbb>1<nbb>9<nbb>1817<nbb>54825<nbb>1439134311<nbb>275<nbb>0<nbb>0<nbb>
xxChuaTexx<nbb>18<nbb>2<nbb>580<nbb>400<nbb>01/08 10:09:32<nbb>1<nbb>9<nbb>1046<nbb>33800<nbb>1439185066<nbb>258<nbb>0<nbb>0<nbb>
SunGod<nbb>18<nbb>2<nbb>488<nbb>400<nbb><nbb>1<nbb>9<nbb>247<nbb>41858<nbb>1439203592<nbb>262<nbb>0<nbb>0<nbb>
KeSatNhan<nbb>18<nbb>2<nbb>415<nbb>400<nbb><nbb>1<nbb>12<nbb>70<nbb>40272<nbb>1439217567<nbb>150<nbb>0<nbb>0<nbb>
KienSpeed<nbb>18<nbb>2<nbb>361<nbb>400<nbb><nbb>1<nbb>9<nbb>103<nbb>59698<nbb>1439123498<nbb>500<nbb>0<nbb>0<nbb>
BoGia<nbb>18<nbb>2<nbb>338<nbb>400<nbb><nbb>1<nbb>9<nbb>3122<nbb>36495<nbb>1439124314<nbb>277<nbb>0<nbb>0<nbb>
Jins<nbb>18<nbb>2<nbb>326<nbb>400<nbb>06/08 12:21:51<nbb>1<nbb>9<nbb>566<nbb>48210<nbb>1443920224<nbb>260<nbb>0<nbb>0<nbb>
Torres<nbb>18<nbb>2<nbb>12<nbb>400<nbb><nbb>1<nbb>11<nbb>77<nbb>25400<nbb>1444568909<nbb>500<nbb>0<nbb>0<nbb>
CaFeSuaDa<nbb>18<nbb>1<nbb>483<nbb>400<nbb>31/07 21:35:31<nbb>1<nbb>9<nbb>932<nbb>31536<nbb>1439300120<nbb>212<nbb>0<nbb>0<nbb>
KeDuatang<nbb>17<nbb>1<nbb>168<nbb>400<nbb><nbb>1<nbb>9<nbb>0<nbb>3900<nbb>1439469632<nbb>0<nbb>0<nbb>0<nbb>
vuto1<nbb>17<nbb>1<nbb>154<nbb>312<nbb><nbb>1<nbb>9<nbb>0<nbb>34530<nbb>1444568977<nbb>0<nbb>0<nbb>0<nbb>
vanad<nbb>17<nbb>1<nbb>152<nbb>400<nbb><nbb>1<nbb>9<nbb>0<nbb>32600<nbb>1439084098<nbb>0<nbb>0<nbb>0<nbb>
zzTimzz<nbb>16<nbb>1<nbb>151<nbb>400<nbb><nbb>1<nbb>9<nbb>0<nbb>34360<nbb>1439469441<nbb>0<nbb>0<nbb>0<nbb>
hghfv<nbb>16<nbb>1<nbb>151<nbb>400<nbb><nbb>1<nbb>9<nbb>0<nbb>32550<nbb>1439645094<nbb>0<nbb>0<nbb>0<nbb>
Eren<nbb>17<nbb>1<nbb>101<nbb>400<nbb><nbb>1<nbb>9<nbb>0<nbb>29070<nbb>1439029797<nbb>0<nbb>0<nbb>0<nbb>
Filbertt<nbb>18<nbb>1<nbb>25<nbb>400<nbb>23/08 20:17:59<nbb>1<nbb>9<nbb>223<nbb>23000<nbb>1443153800<nbb>503<nbb>0<nbb>0<nbb>
HuyenThoai<nbb>16<nbb>1<nbb>6<nbb>6<nbb><nbb>1<nbb>9<nbb>0<nbb>2400<nbb>1421387778<nbb>0<nbb>0<nbb>0<nbb>
TomTom<nbb>18<nbb>0<nbb>504<nbb>400<nbb><nbb>1<nbb>1959<nbb>24<nbb>31959<nbb>1440295111<nbb>500<nbb>0<nbb>0<nbb>
vodoithu<nbb>16<nbb>0<nbb>301<nbb>400<nbb><nbb>1<nbb>9<nbb>0<nbb>16200<nbb>1438992304<nbb>0<nbb>0<nbb>0<nbb>
CutiNB2015<nbb>18<nbb>0<nbb>263<nbb>400<nbb><nbb>1<nbb>9<nbb>119<nbb>20936<nbb>1439106949<nbb>212<nbb>0<nbb>0<nbb>
LorenKid<nbb>18<nbb>0<nbb>221<nbb>400<nbb><nbb>1<nbb>9<nbb>0<nbb>19915<nbb>1441855031<nbb>387<nbb>0<nbb>0<nbb>
HOANGDE<nbb>18<nbb>0<nbb>217<nbb>400<nbb><nbb>1<nbb>9<nbb>0<nbb>21580<nbb>1439130769<nbb>37<nbb>0<nbb>0<nbb>
overdose<nbb>18<nbb>0<nbb>213<nbb>400<nbb><nbb>1<nbb>9<nbb>0<nbb>19705<nbb>1438960370<nbb>87<nbb>0<nbb>0<nbb>
HungKT<nbb>17<nbb>0<nbb>212<nbb>400<nbb><nbb>1<nbb>9<nbb>0<nbb>4840<nbb>1439120089<nbb>0<nbb>0<nbb>0<nbb>
1HitDie<nbb>18<nbb>0<nbb>211<nbb>400<nbb><nbb>1<nbb>6<nbb>0<nbb>3780<nbb>1441865411<nbb>800<nbb>1<nbb>0<nbb>
Susi<nbb>16<nbb>0<nbb>207<nbb>400<nbb><nbb>1<nbb>9<nbb>0<nbb>23170<nbb>1444393518<nbb>0<nbb>0<nbb>0<nbb>
9999999<nbb>16<nbb>0<nbb>206<nbb>400<nbb><nbb>1<nbb>9<nbb>0<nbb>2520<nbb>1439123377<nbb>0<nbb>0<nbb>0<nbb>
Knou<nbb>16<nbb>0<nbb>206<nbb>6<nbb><nbb>1<nbb>9<nbb>0<nbb>2520<nbb>1410330655<nbb>0<nbb>0<nbb>0<nbb>
masterbing<nbb>16<nbb>0<nbb>206<nbb>6<nbb><nbb>1<nbb>9<nbb>0<nbb>2520<nbb>1412390250<nbb>0<nbb>7<nbb>30<nbb>
DK005<nbb>17<nbb>0<nbb>205<nbb>400<nbb><nbb>1<nbb>9<nbb>0<nbb>2520<nbb>1441904977<nbb>0<nbb>0<nbb>0<nbb>
VaiLon<nbb>18<nbb>0<nbb>205<nbb>400<nbb><nbb>1<nbb>9<nbb>0<nbb>30816<nbb>1443664748<nbb>7<nbb>0<nbb>0<nbb>
