1429994451
Coiner<nbb>34<nbb>1<nbb>765<nbb>400<nbb><nbb>1<nbb>934<nbb>23<nbb>67297<nbb>1416758863<nbb>
KySiRong<nbb>34<nbb>1<nbb>706<nbb>353<nbb>06/11 15:43:12<nbb>1<nbb>19<nbb>323<nbb>3600<nbb>1417184735<nbb>
KySiRong<nbb>34<nbb>1<nbb>706<nbb>353<nbb>06/11 15:43:12<nbb>1<nbb>19<nbb>323<nbb>59555<nbb>1417184735<nbb>
kimono<nbb>34<nbb>1<nbb>190<nbb>400<nbb><nbb>1<nbb>9<nbb>19<nbb>39704<nbb>1417181667<nbb>
Exciter<nbb>34<nbb>1<nbb>89<nbb>400<nbb><nbb>1<nbb>0<nbb>837<nbb>2400<nbb>1416841175<nbb>
Exciter<nbb>34<nbb>1<nbb>89<nbb>400<nbb><nbb>1<nbb>0<nbb>837<nbb>33490<nbb>1416841175<nbb>
MaxMiuV<nbb>34<nbb>0<nbb>941<nbb>400<nbb><nbb>1<nbb>51<nbb>269<nbb>39072<nbb>1414932471<nbb>
VTC16<nbb>34<nbb>0<nbb>635<nbb>400<nbb><nbb>1<nbb>9<nbb>67<nbb>34114<nbb>1412683173<nbb>
1000USD<nbb>34<nbb>0<nbb>625<nbb>400<nbb><nbb>1<nbb>9<nbb>317<nbb>41465<nbb>1416227860<nbb>
Morina<nbb>34<nbb>0<nbb>469<nbb>400<nbb><nbb>1<nbb>365<nbb>9<nbb>29275<nbb>1417307048<nbb>
BrackOBaMa<nbb>34<nbb>0<nbb>421<nbb>400<nbb><nbb>1<nbb>9<nbb>3<nbb>31866<nbb>1411295453<nbb>
xxxxx<nbb>34<nbb>0<nbb>390<nbb>400<nbb><nbb>1<nbb>0<nbb>221<nbb>27090<nbb>1412418611<nbb>
xxxxx<nbb>34<nbb>0<nbb>390<nbb>400<nbb><nbb>1<nbb>0<nbb>221<nbb>28991<nbb>1412418611<nbb>
MissXXX<nbb>34<nbb>0<nbb>304<nbb>367<nbb><nbb>1<nbb>0<nbb>74<nbb>29476<nbb>1413342615<nbb>
ConGheMay<nbb>34<nbb>0<nbb>294<nbb>400<nbb><nbb>1<nbb>9<nbb>57<nbb>24440<nbb>1411296280<nbb>
BIMELF<nbb>34<nbb>0<nbb>290<nbb>400<nbb><nbb>1<nbb>9<nbb>34<nbb>25404<nbb>1414326952<nbb>
cocon<nbb>34<nbb>0<nbb>279<nbb>351<nbb><nbb>1<nbb>0<nbb>17<nbb>23915<nbb>1415218059<nbb>
ECaChon<nbb>34<nbb>0<nbb>270<nbb>400<nbb><nbb>1<nbb>9<nbb>0<nbb>23411<nbb>1411283826<nbb>
HuyenQBa<nbb>34<nbb>0<nbb>251<nbb>400<nbb><nbb>1<nbb>867<nbb>5468<nbb>22100<nbb>1416289108<nbb>
HotGirl2<nbb>34<nbb>0<nbb>248<nbb>355<nbb><nbb>1<nbb>9<nbb>10<nbb>20930<nbb>1411857569<nbb>
CaiLonTaoN<nbb>34<nbb>0<nbb>229<nbb>400<nbb><nbb>1<nbb>0<nbb>159<nbb>20670<nbb>1413725731<nbb>
EFbufffff<nbb>34<nbb>0<nbb>224<nbb>400<nbb><nbb>1<nbb>9<nbb>22<nbb>20491<nbb>1413482357<nbb>
Monday<nbb>34<nbb>0<nbb>217<nbb>400<nbb><nbb>1<nbb>0<nbb>0<nbb>19845<nbb>1413253059<nbb>
Clum<nbb>33<nbb>0<nbb>211<nbb>134<nbb><nbb>1<nbb>0<nbb>2<nbb>19831<nbb>1417104987<nbb>
TieuLongNu<nbb>33<nbb>0<nbb>208<nbb>345<nbb><nbb>1<nbb>0<nbb>0<nbb>2400<nbb>1413261679<nbb>
TieuLongNu<nbb>33<nbb>0<nbb>208<nbb>345<nbb><nbb>1<nbb>0<nbb>0<nbb>19530<nbb>1413261679<nbb>
hangcave<nbb>33<nbb>0<nbb>207<nbb>6<nbb><nbb>1<nbb>0<nbb>0<nbb>19495<nbb>1413123226<nbb>
0oHANGo0<nbb>33<nbb>0<nbb>206<nbb>325<nbb><nbb>1<nbb>0<nbb>0<nbb>19460<nbb>1413784654<nbb>
LOLLATAO<nbb>34<nbb>0<nbb>205<nbb>400<nbb><nbb>1<nbb>0<nbb>0<nbb>19425<nbb>1413097448<nbb>
TuQuy7<nbb>33<nbb>0<nbb>205<nbb>400<nbb><nbb>1<nbb>0<nbb>0<nbb>19425<nbb>1413362429<nbb>
OoNYToO<nbb>33<nbb>0<nbb>205<nbb>400<nbb><nbb>1<nbb>0<nbb>0<nbb>19425<nbb>1413421235<nbb>
The0ne<nbb>34<nbb>0<nbb>204<nbb>400<nbb><nbb>1<nbb>25<nbb>352<nbb>19390<nbb>1413193226<nbb>
Vksting<nbb>33<nbb>0<nbb>203<nbb>386<nbb><nbb>1<nbb>9<nbb>0<nbb>19355<nbb>1413292343<nbb>
Hotgirl140<nbb>33<nbb>0<nbb>203<nbb>181<nbb><nbb>1<nbb>0<nbb>0<nbb>19355<nbb>1413981115<nbb>
EffBuff<nbb>34<nbb>0<nbb>202<nbb>400<nbb><nbb>1<nbb>0<nbb>3<nbb>19320<nbb>1413031185<nbb>
HaiYiii<nbb>34<nbb>0<nbb>202<nbb>400<nbb><nbb>1<nbb>0<nbb>0<nbb>20980<nbb>1413615005<nbb>
Cave001<nbb>33<nbb>0<nbb>202<nbb>375<nbb><nbb>1<nbb>0<nbb>0<nbb>20980<nbb>1415693324<nbb>
Phoenix<nbb>33<nbb>0<nbb>202<nbb>320<nbb><nbb>1<nbb>0<nbb>3<nbb>19320<nbb>1414732229<nbb>
ELFS<nbb>33<nbb>0<nbb>202<nbb>296<nbb><nbb>1<nbb>0<nbb>0<nbb>19320<nbb>1415030202<nbb>
koolboy4<nbb>34<nbb>0<nbb>201<nbb>400<nbb><nbb>1<nbb>0<nbb>0<nbb>19285<nbb>1413050231<nbb>
XoaKyUc<nbb>33<nbb>0<nbb>201<nbb>400<nbb><nbb>1<nbb>0<nbb>0<nbb>19285<nbb>1413180446<nbb>
242141214<nbb>34<nbb>0<nbb>201<nbb>400<nbb><nbb>1<nbb>0<nbb>0<nbb>19285<nbb>1413231420<nbb>
SieuBufff<nbb>34<nbb>0<nbb>201<nbb>400<nbb><nbb>1<nbb>0<nbb>0<nbb>21149<nbb>1413359539<nbb>
Lena<nbb>33<nbb>0<nbb>201<nbb>383<nbb><nbb>1<nbb>0<nbb>0<nbb>19285<nbb>1413301752<nbb>
Dell<nbb>33<nbb>0<nbb>201<nbb>357<nbb><nbb>1<nbb>0<nbb>2<nbb>19285<nbb>1415803186<nbb>
Even<nbb>33<nbb>0<nbb>201<nbb>342<nbb><nbb>1<nbb>0<nbb>0<nbb>19285<nbb>1413191522<nbb>
MoaOiMeOI<nbb>33<nbb>0<nbb>201<nbb>325<nbb><nbb>1<nbb>0<nbb>0<nbb>19285<nbb>1413085879<nbb>
xXzx<nbb>33<nbb>0<nbb>201<nbb>304<nbb><nbb>1<nbb>0<nbb>3<nbb>19285<nbb>1413126035<nbb>
kissmc<nbb>33<nbb>0<nbb>201<nbb>298<nbb><nbb>1<nbb>0<nbb>0<nbb>19285<nbb>1413358927<nbb>
ngoctrinh<nbb>34<nbb>0<nbb>201<nbb>287<nbb><nbb>1<nbb>0<nbb>0<nbb>19285<nbb>1413187271<nbb>
Pang<nbb>34<nbb>0<nbb>86<nbb>400<nbb><nbb>2<nbb>67<nbb>5<nbb>15258<nbb>1417331731<nbb>
CaveBuf<nbb>33<nbb>0<nbb>64<nbb>388<nbb><nbb>2<nbb>270<nbb>0<nbb>12974<nbb>1417361054<nbb>
concec<nbb>33<nbb>0<nbb>63<nbb>332<nbb><nbb>2<nbb>0<nbb>6<nbb>13145<nbb>1417366390<nbb>
Ifly<nbb>33<nbb>0<nbb>62<nbb>6<nbb><nbb>2<nbb>59<nbb>0<nbb>12810<nbb>1417354956<nbb>
K3mk3m<nbb>33<nbb>0<nbb>32<nbb>6<nbb><nbb>2<nbb>0<nbb>4<nbb>9300<nbb>1417278408<nbb>
NexCeoz<nbb>33<nbb>0<nbb>18<nbb>327<nbb><nbb>2<nbb>0<nbb>0<nbb>6400<nbb>1417356539<nbb>
TaiGP<nbb>33<nbb>0<nbb>12<nbb>301<nbb><nbb>2<nbb>0<nbb>0<nbb>4600<nbb>1417251175<nbb>
Unicorn<nbb>33<nbb>0<nbb>7<nbb>308<nbb><nbb>2<nbb>0<nbb>0<nbb>2800<nbb>1417309793<nbb>
runordie<nbb>33<nbb>0<nbb>7<nbb>268<nbb><nbb>2<nbb>0<nbb>0<nbb>2800<nbb>1417359288<nbb>
Honey<nbb>33<nbb>0<nbb>6<nbb>239<nbb><nbb>2<nbb>0<nbb>0<nbb>2400<nbb>1417276522<nbb>
