Lúc: 10:15:35PM, 19/01/2014. SELECT TOP 3 TopResetScore.name, SUM(reset_score) AS ResetScoreTotal, Class, thehe FROM TopResetScore JOIN MEMB_INFO ON TopResetScore.acc collate DATABASE_DEFAULT =MEMB_INFO.memb___id collate DATABASE_DEFAULT AND thehe IN (1) AND [time] >=  AND [time] <= 86400 JOIN Character ON TopResetScore.name collate DATABASE_DEFAULT = Character.Name collate DATABASE_DEFAULT  GROUP BY TopResetScore.name, Class, Thehe HAVING SUM(reset_score) >= 30000 ORDER BY ResetScoreTotal DESC 
----------------------------------------------------------------------

Lúc: 10:17:26PM, 19/01/2014. SELECT TOP 3 TopResetScore.name, SUM(reset_score) AS ResetScoreTotal, Class, thehe FROM TopResetScore JOIN MEMB_INFO ON TopResetScore.acc collate DATABASE_DEFAULT =MEMB_INFO.memb___id collate DATABASE_DEFAULT AND thehe IN (1) AND [time] >=  AND [time] <= 86400 JOIN Character ON TopResetScore.name collate DATABASE_DEFAULT = Character.Name collate DATABASE_DEFAULT  GROUP BY TopResetScore.name, Class, Thehe HAVING SUM(reset_score) >= 30000 ORDER BY ResetScoreTotal DESC 
----------------------------------------------------------------------

Lúc: 12:36:04PM, 17/02/2014. SELECT award_id, award_info, item_info, item_image, name, status, receive_time, item_slg, create_time, hsd_time FROM NBB_Award ORDER BY status, award_id DESC 
----------------------------------------------------------------------

Lúc: 12:37:02PM, 17/02/2014. SELECT award_id, award_info, item_info, item_image, name, status, receive_time, item_slg, create_time, hsd_time FROM NBB_Award ORDER BY status, award_id DESC 
----------------------------------------------------------------------

Lúc: 05:44:25PM, 01/06/2014. SELECT diem, gcoin_win, status FROM NBB_Relax_Lo WHERE ngay>='1401555600' AND ngay <= '1401642000' 
----------------------------------------------------------------------

Lúc: 11:16:17AM, 17/11/2014. SELECT memb___id, memb__pwd, memb__pwd2, pass2, tel__numb, mail_addr,  FROM MEMB_INFO WHERE memb___id like '%net%' 
----------------------------------------------------------------------

Lúc: 02:07:39PM, 17/11/2014. UPDATE MEMB_INFO SET memb__pwd='abcdef' WHERE memb___id='netbanbe' 
----------------------------------------------------------------------

Lúc: 02:58:26PM, 17/11/2014. NOT FUNCTION 
----------------------------------------------------------------------

Lúc: 03:04:40PM, 17/11/2014. NOT FUNCTION 
----------------------------------------------------------------------

Lúc: 04:09:10PM, 17/11/2014. NOT FUNCTION 
----------------------------------------------------------------------

Lúc: 04:10:41PM, 17/11/2014. NOT FUNCTION 
----------------------------------------------------------------------

Lúc: 03:30:24PM, 18/11/2014. NOT FUNCTION 
----------------------------------------------------------------------

Lúc: 05:01:37PM, 18/11/2014. NOT FUNCTION 
----------------------------------------------------------------------

Lúc: 09:53:24AM, 19/11/2014. UPDATE Character SET cLevel='8' WHERE Character='WhiteMagic' 
----------------------------------------------------------------------

Lúc: 03:25:02PM, 13/12/2014. NOT FUNCTION 
----------------------------------------------------------------------

Lúc: 04:30:55PM, 16/12/2014. SELECT AccountID, Name, GameIDC, ConnectStat, ServerName, MEMB_STAT.IP, ConnectTM, DisConnectTM, cLevel, LevelUpPoint, pointdutru, Class, Strength, Dexterity, Vitality, Energy, Leadership, Money, MapNumber, MapPosX, MapPosY, PkCount, PkLevel, PkTime, CtlCode, Quest, Resets, Relifes, Resets_Time, khoado, makhoado, UyThac, uythacoffline_stat, uythacoffline_time, PointUyThac, point_event, SCFMasterLevel, SCFMasterPoints, SCFMarried, SCFMarryHusbandWife, SCFPCPoints, Top50, DGT_Time, SCFSealItem, SCFSealTime, SCFScrollItem, SCFScrollTime, PointUyThac_Event, nbbtuluyen_str_point, nbbtuluyen_agi_point, nbbtuluyen_vit_point, nbbtuluyen_ene_point, nbbtuluyen_point, nbbsongtu_lv, nbbsongtu_point, nbbhoanhao_point, nbbcuonghoa_point, ErrorSub     FROM Character JOIN AccountCharacter ON Character.AccountID = AccountCharacter.Id JOIN MEMB_STAT ON Character.AccountID = MEMB_STAT.memb___id  AND Name = ' DieSoc' 
----------------------------------------------------------------------

Lúc: 04:30:58PM, 16/12/2014. SELECT AccountID, Name, GameIDC, ConnectStat, ServerName, MEMB_STAT.IP, ConnectTM, DisConnectTM, cLevel, LevelUpPoint, pointdutru, Class, Strength, Dexterity, Vitality, Energy, Leadership, Money, MapNumber, MapPosX, MapPosY, PkCount, PkLevel, PkTime, CtlCode, Quest, Resets, Relifes, Resets_Time, khoado, makhoado, UyThac, uythacoffline_stat, uythacoffline_time, PointUyThac, point_event, SCFMasterLevel, SCFMasterPoints, SCFMarried, SCFMarryHusbandWife, SCFPCPoints, Top50, DGT_Time, SCFSealItem, SCFSealTime, SCFScrollItem, SCFScrollTime, PointUyThac_Event, nbbtuluyen_str_point, nbbtuluyen_agi_point, nbbtuluyen_vit_point, nbbtuluyen_ene_point, nbbtuluyen_point, nbbsongtu_lv, nbbsongtu_point, nbbhoanhao_point, nbbcuonghoa_point, ErrorSub     FROM Character JOIN AccountCharacter ON Character.AccountID = AccountCharacter.Id JOIN MEMB_STAT ON Character.AccountID = MEMB_STAT.memb___id  AND Name = 'DieSoc' 
----------------------------------------------------------------------

Lúc: 02:41:35PM, 11/01/2015. NOT FUNCTION 
----------------------------------------------------------------------

Lúc: 02:42:31PM, 11/01/2015. NOT FUNCTION submit 
----------------------------------------------------------------------

Lúc: 02:45:28PM, 11/01/2015. UPDATE MEMB_INFO SET gcoin=gcoin + asdf WHERE memb___id='netbanbe' 
----------------------------------------------------------------------

Lúc: 02:47:33PM, 11/01/2015. UPDATE MEMB_INFO SET gcoin=gcoin + a WHERE memb___id='netbanbe' 
----------------------------------------------------------------------

Lúc: 03:00:08PM, 11/01/2015. NOT FUNCTION gcoin_km 
----------------------------------------------------------------------

Lúc: 03:04:10PM, 11/01/2015. NOT FUNCTION jewel_chao 
----------------------------------------------------------------------

Lúc: 03:05:09PM, 11/01/2015. NOT FUNCTION wcoin 
----------------------------------------------------------------------

Lúc: 03:05:24PM, 11/01/2015. NOT FUNCTION wcoin 
----------------------------------------------------------------------

Lúc: 12:22:41PM, 15/02/2015. UPDATE Character SET nbb_pointmaster='117' WHERE Name='1HitDie' 
----------------------------------------------------------------------

Lúc: 04:50:24PM, 13/03/2015. UPDATE MEMB_INFO SET gcoin=gcoin +  WHERE memb___id='netbanbe' 
----------------------------------------------------------------------

Lúc: 04:51:19PM, 13/03/2015. UPDATE MEMB_INFO SET gcoin=gcoin +  WHERE memb___id='netbanbe' 
----------------------------------------------------------------------

Lúc: 04:52:43PM, 13/03/2015. UPDATE MEMB_INFO SET gcoin=gcoin +  WHERE memb___id='netbanbe' 
----------------------------------------------------------------------

Lúc: 04:54:47PM, 13/03/2015. UPDATE MEMB_INFO SET gcoin=gcoin +  WHERE memb___id='netbanbe' 
----------------------------------------------------------------------

Lúc: 08:18:54PM, 01/04/2015. SELECT CAST(Items AS image) FROM NBB_Log_WareHouse WHERE acc='netbanbe' AND log_time='2015-04-01 20:13:00' 
----------------------------------------------------------------------

Lúc: 01:43:37AM, 02/06/2015. UPDATE Character SET Class='18' , Quest=AAEAFFFF14141401FFFFFFFFFFFFFFFFFFFFFFFFFFFFFFFFFFFFFFFFFFFFFFFFFFFFFFFFFFFFFFFFFFFFFFFFFFFFFFFFFFFF WHERE Name='YenNgoc' 
----------------------------------------------------------------------

Lúc: 12:40:27PM, 06/02/2016. SELECT log_time FROM NBB_Log_WareHouse WHERE acc='huydat5' AND log_time >= '2016-02-06' AND log_time <= '2016-02-06 23:59:59' ORDER BY log_time 
----------------------------------------------------------------------

Lúc: 09:06:03PM, 22/02/2016. INSERT INTO Titan_Rewards (AccountID, Name, Zen, VIPMoney, Num, Lvl, Opt, Luck, Skill, Dur, Excellent, Ancient, JOH, Sock1, Sock2, Sock3, Sock4, Sock5, Days, SerialFFFFFFFE, type) VALUES ('huydat1', 'test5', 0, 0, , , , , , , , , , , , , , , 1, 0, 0) 
----------------------------------------------------------------------

Lúc: 10:48:24PM, 14/03/2016. INSERT INTO Log_TienTe (acc, gcoin, gcoin_km, vpoint, price, Des, time) VALUES ('', , , , '50000 VNĐ nhận được 4 GiftCode', N'Tài khoản <strong></strong> nạp thẻ với mệnh giá 50000 VNĐ  nhận được <strong>4 GiftCode Nạp Thẻ</strong>', 1457970503) 
----------------------------------------------------------------------

